counter/simulation/qsim/counter.msim.vcd
$comment
	File created using the following command:
		vcd file counter.msim.vcd -direction
$end
$date
	Wed Jun 08 10:32:58 2022
$end
$version
	ModelSim Version 10.1d
$end
$timescale
	1ps
$end
$scope module counter_vlg_vec_tst $end
$var reg 1 ! clk $end
$var reg 2 " mov [0:1] $end
$var wire 1 # o [0] $end
$var wire 1 $ o [1] $end
$var wire 1 % o [2] $end
$var wire 1 & o [3] $end
$var wire 1 ' o [4] $end
$var wire 1 ( sampler $end
$scope module i1 $end
$var wire 1 ) gnd $end
$var wire 1 * vcc $end
$var wire 1 + unknown $end
$var tri1 1 , devclrn $end
$var tri1 1 - devpor $end
$var tri1 1 . devoe $end
$var wire 1 / o[4]~output_o $end
$var wire 1 0 o[3]~output_o $end
$var wire 1 1 o[2]~output_o $end
$var wire 1 2 o[1]~output_o $end
$var wire 1 3 o[0]~output_o $end
$var wire 1 4 clk~input_o $end
$var wire 1 5 clk~inputclkctrl_outclk $end
$var wire 1 6 count[2]~5_combout $end
$var wire 1 7 mov[0]~input_o $end
$var wire 1 8 mov[1]~input_o $end
$var wire 1 9 count~2_combout $end
$var wire 1 : count~3_combout $end
$var wire 1 ; count~0_combout $end
$var wire 1 < count~1_combout $end
$var wire 1 = Mux1~0_combout $end
$var wire 1 > Mux1~1_combout $end
$var wire 1 ? Mux1~2_combout $end
$var wire 1 @ Mux1~3_combout $end
$var wire 1 A Mux1~4_combout $end
$var wire 1 B count [0] $end
$var wire 1 C count [1] $end
$var wire 1 D count [2] $end
$upscope $end
$upscope $end
$enddefinitions $end
#0
$dumpvars
0!
b10 "
1'
0&
0%
0$
0#
x(
0)
1*
x+
1,
1-
1.
1/
00
01
02
03
04
05
16
17
08
19
1:
1;
0<
1=
0>
0?
0@
0A
0D
0C
0B
$end
#5000
1!
14
15
0(
1C
1D
06
1>
0=
10
0/
1&
0'
#10000
0!
04
05
1(
#15000
1!
14
15
0(
0D
1<
0:
16
1?
0>
11
00
1%
0&
#20000
0!
04
05
1(
#25000
1!
14
15
0(
1B
0C
1D
06
1@
0?
12
01
1$
0%
#30000
0!
04
05
1(
#35000
1!
14
15
0(
0D
1:
16
1A
0@
13
02
1#
0$
#40000
0!
04
05
1(
#45000
1!
14
15
0(
1C
1D
06
0A
03
0#
#50000
0!
04
05
1(
#55000
1!
14
15
0(
0D
0<
0:
16
#60000
0!
04
05
1(
#65000
1!
14
15
0(
0B
0C
1D
06
#70000
0!
04
05
1(
#75000
1!
14
15
0(
0D
1:
16
1=
1/
1'
#80000
b11 "
0!
18
04
05
1(
09
#85000
1!
14
15
0(
#90000
0!
04
05
1(
#95000
1!
14
15
0(
#100000
0!
04
05
1(
#105000
1!
14
15
0(
#110000
0!
04
05
1(
#115000
1!
14
15
0(
#120000
0!
04
05
1(
#125000
1!
14
15
0(
#130000
0!
04
05
1(
#135000
1!
14
15
0(
#140000
0!
04
05
1(
#145000
1!
14
15
0(
#150000
0!
04
05
1(
#155000
1!
14
15
0(
#160000
b1 "
b0 "
0!
08
07
04
05
1(
#165000
1!
14
15
0(
#170000
0!
04
05
1(
#175000
1!
14
15
0(
#180000
0!
04
05
1(
#185000
1!
14
15
0(
#190000
0!
04
05
1(
#195000
1!
14
15
0(
#200000
0!
04
05
1(
#205000
1!
14
15
0(
#210000
0!
04
05
1(
#215000
1!
14
15
0(
#220000
0!
04
05
1(
#225000
1!
14
15
0(
#230000
0!
04
05
1(
#235000
1!
14
15
0(
#240000
b1 "
0!
18
04
05
1(
0;
0:
19
#245000
1!
14
15
0(
1D
1<
1:
06
0=
0/
0'
#250000
0!
04
05
1(
#255000
1!
14
15
0(
1B
1C
0D
16
#260000
0!
04
05
1(
#265000
1!
14
15
0(
1D
0:
06
#270000
0!
04
05
1(
#275000
1!
14
15
0(
0C
0D
16
1A
13
1#
#280000
0!
04
05
1(
#285000
1!
14
15
0(
1D
0<
1:
06
0A
1@
03
12
0#
1$
#290000
0!
04
05
1(
#295000
1!
14
15
0(
0B
1C
0D
16
0@
1?
02
11
0$
1%
#300000
0!
04
05
1(
#305000
1!
14
15
0(
1D
0:
06
0?
1>
01
10
0%
1&
#310000
0!
04
05
1(
#315000
1!
14
15
0(
0C
0D
16
0>
1=
00
1/
0&
1'
#320000
b11 "
b10 "
0!
08
17
04
05
1(
1;
1:
#325000
1!
14
15
0(
1C
1D
06
1>
0=
10
0/
1&
0'
#330000
0!
04
05
1(
#335000
1!
14
15
0(
0D
1<
0:
16
1?
0>
11
00
1%
0&
#340000
0!
04
05
1(
#345000
1!
14
15
0(
1B
0C
1D
06
1@
0?
12
01
1$
0%
#350000
0!
04
05
1(
#355000
1!
14
15
0(
0D
1:
16
1A
0@
13
02
1#
0$
#360000
0!
04
05
1(
#365000
1!
14
15
0(
1C
1D
06
0A
03
0#
#370000
0!
04
05
1(
#375000
1!
14
15
0(
0D
0<
0:
16
#380000
0!
04
05
1(
#385000
1!
14
15
0(
0B
0C
1D
06
#390000
0!
04
05
1(
#395000
1!
14
15
0(
0D
1:
16
1=
1/
1'
#400000
b11 "
0!
18
04
05
1(
09
#405000
1!
14
15
0(
#410000
0!
04
05
1(
#415000
1!
14
15
0(
#420000
0!
04
05
1(
#425000
1!
14
15
0(
#430000
0!
04
05
1(
#435000
1!
14
15
0(
#440000
0!
04
05
1(
#445000
1!
14
15
0(
#450000
0!
04
05
1(
#455000
1!
14
15
0(
#460000
0!
04
05
1(
#465000
1!
14
15
0(
#470000
0!
04
05
1(
#475000
1!
14
15
0(
#480000
b1 "
b0 "
0!
08
07
04
05
1(
#485000
1!
14
15
0(
#490000
0!
04
05
1(
#495000
1!
14
15
0(
#500000
0!
04
05
1(
#505000
1!
14
15
0(
#510000
0!
04
05
1(
#515000
1!
14
15
0(
#520000
0!
04
05
1(
#525000
1!
14
15
0(
#530000
0!
04
05
1(
#535000
1!
14
15
0(
#540000
0!
04
05
1(
#545000
1!
14
15
0(
#550000
0!
04
05
1(
#555000
1!
14
15
0(
#560000
b1 "
0!
18
04
05
1(
0;
0:
19
#565000
1!
14
15
0(
1D
1<
1:
06
0=
0/
0'
#570000
0!
04
05
1(
#575000
1!
14
15
0(
1B
1C
0D
16
#580000
0!
04
05
1(
#585000
1!
14
15
0(
1D
0:
06
#590000
0!
04
05
1(
#595000
1!
14
15
0(
0C
0D
16
1A
13
1#
#600000
0!
04
05
1(
#605000
1!
14
15
0(
1D
0<
1:
06
0A
1@
03
12
0#
1$
#610000
0!
04
05
1(
#615000
1!
14
15
0(
0B
1C
0D
16
0@
1?
02
11
0$
1%
#620000
0!
04
05
1(
#625000
1!
14
15
0(
1D
0:
06
0?
1>
01
10
0%
1&
#630000
0!
04
05
1(
#635000
1!
14
15
0(
0C
0D
16
0>
1=
00
1/
0&
1'
#640000
b11 "
b10 "
0!
08
17
04
05
1(
1;
1:
#645000
1!
14
15
0(
1C
1D
06
1>
0=
10
0/
1&
0'
#650000
0!
04
05
1(
#655000
1!
14
15
0(
0D
1<
0:
16
1?
0>
11
00
1%
0&
#660000
0!
04
05
1(
#665000
1!
14
15
0(
1B
0C
1D
06
1@
0?
12
01
1$
0%
#670000
0!
04
05
1(
#675000
1!
14
15
0(
0D
1:
16
1A
0@
13
02
1#
0$
#680000
0!
04
05
1(
#685000
1!
14
15
0(
1C
1D
06
0A
03
0#
#690000
0!
04
05
1(
#695000
1!
14
15
0(
0D
0<
0:
16
#700000
0!
04
05
1(
#705000
1!
14
15
0(
0B
0C
1D
06
#710000
0!
04
05
1(
#715000
1!
14
15
0(
0D
1:
16
1=
1/
1'
#720000
b11 "
0!
18
04
05
1(
09
#725000
1!
14
15
0(
#730000
0!
04
05
1(
#735000
1!
14
15
0(
#740000
0!
04
05
1(
#745000
1!
14
15
0(
#750000
0!
04
05
1(
#755000
1!
14
15
0(
#760000
0!
04
05
1(
#765000
1!
14
15
0(
#770000
0!
04
05
1(
#775000
1!
14
15
0(
#780000
0!
04
05
1(
#785000
1!
14
15
0(
#790000
0!
04
05
1(
#795000
1!
14
15
0(
#800000
b1 "
b0 "
0!
08
07
04
05
1(
#805000
1!
14
15
0(
#810000
0!
04
05
1(
#815000
1!
14
15
0(
#820000
0!
04
05
1(
#825000
1!
14
15
0(
#830000
0!
04
05
1(
#835000
1!
14
15
0(
#840000
0!
04
05
1(
#845000
1!
14
15
0(
#850000
0!
04
05
1(
#855000
1!
14
15
0(
#860000
0!
04
05
1(
#865000
1!
14
15
0(
#870000
0!
04
05
1(
#875000
1!
14
15
0(
#880000
b1 "
0!
18
04
05
1(
0;
0:
19
#885000
1!
14
15
0(
1D
1<
1:
06
0=
0/
0'
#890000
0!
04
05
1(
#895000
1!
14
15
0(
1B
1C
0D
16
#900000
0!
04
05
1(
#905000
1!
14
15
0(
1D
0:
06
#910000
0!
04
05
1(
#915000
1!
14
15
0(
0C
0D
16
1A
13
1#
#920000
0!
04
05
1(
#925000
1!
14
15
0(
1D
0<
1:
06
0A
1@
03
12
0#
1$
#930000
0!
04
05
1(
#935000
1!
14
15
0(
0B
1C
0D
16
0@
1?
02
11
0$
1%
#940000
0!
04
05
1(
#945000
1!
14
15
0(
1D
0:
06
0?
1>
01
10
0%
1&
#950000
0!
04
05
1(
#955000
1!
14
15
0(
0C
0D
16
0>
1=
00
1/
0&
1'
#960000
b11 "
b10 "
0!
08
17
04
05
1(
1;
1:
#965000
1!
14
15
0(
1C
1D
06
1>
0=
10
0/
1&
0'
#970000
0!
04
05
1(
#975000
1!
14
15
0(
0D
1<
0:
16
1?
0>
11
00
1%
0&
#980000
0!
04
05
1(
#985000
1!
14
15
0(
1B
0C
1D
06
1@
0?
12
01
1$
0%
#990000
0!
04
05
1(
#995000
1!
14
15
0(
0D
1:
16
1A
0@
13
02
1#
0$
